D:\Softdev1\cruddatabase\src\main\java\dao\ReceiptDao.java
D:\Softdev1\cruddatabase\src\main\java\dao\DaoInterface.java
D:\Softdev1\cruddatabase\src\main\java\com\mycompany\storeproject\poc\TestInsertProduct.java
D:\Softdev1\cruddatabase\src\main\java\dao\ProductDao.java
D:\Softdev1\cruddatabase\src\main\java\com\mycompany\storeproject\poc\TestSelectProduct.java
D:\Softdev1\cruddatabase\src\main\java\UI\ProductPanel.java
D:\Softdev1\cruddatabase\src\main\java\model\Receipt.java
D:\Softdev1\cruddatabase\src\main\java\database\Database.java
D:\Softdev1\cruddatabase\src\main\java\com\mycompany\storeproject\poc\TestConnection.java
D:\Softdev1\cruddatabase\src\main\java\model\Product.java
D:\Softdev1\cruddatabase\src\main\java\com\mycompany\storeproject\poc\TestReceipt.java
D:\Softdev1\cruddatabase\src\main\java\com\mycompany\storeproject\poc\TestUpdateProduct.java
D:\Softdev1\cruddatabase\src\main\java\model\ReceiptDetail.java
D:\Softdev1\cruddatabase\src\main\java\model\Customer.java
D:\Softdev1\cruddatabase\src\main\java\com\mycompany\storeproject\poc\TestDeleteProduct.java
D:\Softdev1\cruddatabase\src\main\java\model\User.java
D:\Softdev1\cruddatabase\src\main\java\UI\TestDialog.java
